module github.com/Dreamacro/clash

go 1.17

require (
	github.com/Dreamacro/go-shadowsocks2 v0.1.7
	github.com/go-chi/chi/v5 v5.0.4
	github.com/go-chi/cors v1.2.0
	github.com/go-chi/render v1.0.1
	github.com/gofrs/uuid v4.0.0+incompatible
	github.com/gorilla/websocket v1.4.2
	github.com/insomniacslk/dhcp v0.0.0-20210827173440-b95caade3eac
	github.com/miekg/dns v1.1.43
	github.com/oschwald/geoip2-golang v1.5.0
	github.com/sirupsen/logrus v1.8.1
	github.com/stretchr/testify v1.7.0
	go.uber.org/atomic v1.9.0
	golang.org/x/crypto v0.0.0-20210817164053-32db794688a5
	golang.org/x/net v0.0.0-20210903162142-ad29c8ab022f
	golang.org/x/sync v0.0.0-20210220032951-036812b2e83c
	golang.org/x/sys v0.0.0-20210906170528-6f6e22806c34
	gopkg.in/yaml.v2 v2.4.0
)

require (
	github.com/VividCortex/ewma v1.2.0 // indirect
	github.com/davecgh/go-spew v1.1.1 // indirect
	github.com/oschwald/maxminddb-golang v1.8.0 // indirect
	github.com/pmezard/go-difflib v1.0.0 // indirect
	github.com/u-root/uio v0.0.0-20210528114334-82958018845c // indirect
	golang.org/x/text v0.3.6 // indirect
	gopkg.in/yaml.v3 v3.0.0-20200313102051-9f266ea9e77c // indirect
)
